<?xml version="1.0" encoding="utf-8"?>
<!-- Generator: Adobe Illustrator 16.0.0, SVG Export Plug-In . SVG Version: 6.00 Build 0)  -->
<!DOCTYPE svg PUBLIC "-//W3C//DTD SVG 1.1//EN" "http://www.w3.org/Graphics/SVG/1.1/DTD/svg11.dtd">
<svg version="1.1" id="Layer_1" xmlns="http://www.w3.org/2000/svg" xmlns:xlink="http://www.w3.org/1999/xlink" x="0px" y="0px"
	 width="292.809px" height="400.35px" viewBox="0 0 292.809 400.35" enable-background="new 0 0 292.809 400.35"
	 xml:space="preserve">
<g>
	<path fill="#FFFFFF" d="M244.113,284.706c0,11.38-0.054,22.685,0.099,33.986c0.014,0.968,1.188,2.38,2.161,2.802
		c6.24,2.704,9.211,7.711,10.111,14.097c0.44,3.126,0.4,6.332,0.435,9.501c0.055,4.502,0.55,8.556,2.722,12.932
		c4.249,8.562,0.634,20.179-12.938,22.138c-23.075,3.325-46.235,6.069-69.361,9.053c-27.727,3.578-55.47,7.023-83.168,10.802
		c-8.062,1.101-14.707-0.41-20.91-6.034c-9.605-8.705-19.777-16.794-29.729-25.121c-8.043-6.73-8.99-12.65-3.521-21.649
		c0.6-0.985,0.881-2.286,0.936-3.46c0.131-2.893,0.034-5.796,0.049-8.698c0.03-6.089,2.009-11.559,6.573-15.529
		c3.08-2.681,3.785-5.569,3.711-9.359c-0.199-9.896-0.067-19.798-0.067-29.444c-6.734-0.771-13.185-0.769-19.217-2.354
		c-14.972-3.932-24.664-14.41-30.377-28.2c-3.584-8.655-0.868-17.414,4.715-24.556c3.887-4.971,4.895-9.975,4.665-15.981
		c-0.379-9.932,0.003-19.886-0.209-29.824c-0.037-1.785-1.026-3.849-2.208-5.253c-3.25-3.863-4.142-9.72-0.951-15.113
		c3.432-5.797,7.516-11.212,11.431-16.713c1.516-2.129,3.32-4.058,5.038-6.04c14.872-17.172,14.875-17.167,36.927-23.202
		c1.194-0.325,2.365-0.733,3.923-1.221c-0.246-5.573,0.276-10.705-2.891-16.416c-7.259-13.091-6.553-27.053-0.072-40.525
		c3.034-6.31,8.951-8.052,15.386-8.923c2.191-0.295,4.5-1.257,6.313-2.539c5.408-3.818,10.493-8.102,15.923-11.889
		c2.603-1.814,3.459-3.85,3.329-6.913c-0.229-5.376,0.1-10.776-0.121-16.152c-0.158-3.862,1.521-6.193,5.105-6.839
		c5.244-0.944,10.558-2.03,15.848-2.063c4.688-0.03,5.818,1.869,5.85,6.65c0.014,2.319,0.002,4.639,0.002,6.998
		c18.188,0.917,36.036,1.815,54.458,2.743c0-2.719-0.443-5.278,0.135-7.58c0.507-2.008,1.846-4.956,3.372-5.353
		c5.526-1.435,11.259-2.347,16.963-2.712c3.757-0.241,6.072,1.996,5.775,6.313c-0.246,3.565-0.051,7.165-0.051,10.872
		c2.073,0.749,4.032,1.364,5.921,2.155c10.415,4.359,15.873,12.58,15.887,23.837c0.004,1.795,0.108,3.598-0.02,5.383
		c-0.301,4.111,0.521,6.979,4.325,9.98c10.286,8.119,8.604,27.644-2.316,35.08c-0.88,0.598-1.834,1.796-1.888,2.764
		c-0.217,3.832-0.088,7.684-0.088,11.17c6.379,1.72,12.356,3.127,18.202,4.951c11.85,3.697,21.949,9.712,27.044,21.821
		c3.149,7.488,6.344,14.962,9.272,22.536c1.467,3.785,0.499,7.256-2.397,10.255c-0.84,0.871-1.511,2.321-1.521,3.512
		c-0.108,13.119-0.162,26.237,0.04,39.354c0.03,1.841,1.167,3.91,2.347,5.445c13.089,16.992,7.627,35.033-2.193,45.301
		c-4.043,4.229-9.168,6.482-14.792,7.821c-0.98,0.232-2.396,1.072-2.575,1.864c-1.548,6.945-6.703,9.751-12.799,11.504
		C250.078,283.424,247.367,283.944,244.113,284.706z M99.557,124.195c-2.694,0-5.173-0.111-7.638,0.02
		c-9.54,0.504-14.79,6.086-14.79,15.651c-0.003,43.483-0.006,86.97,0.008,130.453c0.004,8.008,4.478,13.021,12.385,13.679
		c2.449,0.202,4.949-0.31,7.424-0.286c2.519,0.023,4.016-0.902,4.845-3.409c1.211-3.665,3.901-5.327,7.856-5.479
		c7.577-0.298,15.14-0.914,22.711-1.365c30.563-1.817,61.135-3.551,91.69-5.506c4.597-0.294,8.346-0.081,9.484,5.307
		c2.741-0.223,5.203-0.44,7.667-0.616c8.652-0.613,13.841-6.119,13.845-14.806c0.014-39.755,0.014-79.514,0-119.27
		c0-8.765-4.916-13.843-13.695-14.129c-2.219-0.072-4.141,0.187-5.176-2.746c-0.441-1.241-3.037-2.261-4.74-2.411
		c-4.663-0.408-9.369-0.335-14.057-0.396c-36.7-0.467-73.398-0.931-110.098-1.365C101.142,117.45,100.859,117.746,99.557,124.195z
		 M169.371,107.336c0,0.455,0,0.912,0,1.367c13.659,0,27.324-0.189,40.977,0.107c4.527,0.098,6.189-2.323,7.182-5.815
		c0.516-1.819,0.496-3.825,0.499-5.749c0.037-17.123,0.027-34.247,0.021-51.372c-0.007-11.049-5.338-16.435-16.328-16.912
		c-12.954-0.563-25.9-1.357-38.854-2.028c-9.366-0.485-18.736-1.091-28.111-1.352c-8.667-0.241-14.864,5.056-14.899,12.659
		c-0.093,20.024-0.218,40.051,0.077,60.071c0.098,6.564,2.087,9.223,9.283,9.094C142.596,107.163,155.986,107.336,169.371,107.336z
		 M62.647,340.553c-0.151,0.236-0.302,0.47-0.453,0.702c8.161,6.126,16.17,12.468,24.55,18.277c3.731,2.586,5.191,5.388,4.854,9.854
		c-0.382,5.04,1.651,6.82,6.604,6.269c20.284-2.267,40.561-4.601,60.819-7.063c0.983-0.122,2.505-1.703,2.553-2.664
		c0.246-5.095,0.34-10.22,0.037-15.311c-0.452-7.616-5.26-11.684-12.978-10.938c-13.038,1.255-26.027,3.141-39.09,4.02
		c-9.273,0.624-15.974,3.746-18.24,13.76C81.519,351.688,72.083,346.121,62.647,340.553z M242.627,358.008
		c0-6.632,0.522-12.861-0.151-18.965c-0.63-5.732-5.008-8.901-10.458-8.362c-13.868,1.362-27.729,2.807-41.557,4.509
		c-6.808,0.84-11.534,6.504-11.784,13.396c-0.123,3.449-0.029,6.905-0.022,10.358c0.007,4.834,0.833,5.758,5.617,6.03
		c1.507,0.089,3.041-0.003,4.542-0.179c10.411-1.229,20.823-2.465,31.225-3.771C227.667,360.062,235.283,358.99,242.627,358.008z
		 M62.678,257.696c0.235-2.114,0.978-4.231,0.585-6.106c-1.156-5.495-2.695-10.917-4.216-16.327
		c-1.101-3.93-2.891-5.848-7.888-5.218c-7.254,0.918-14.708,0.236-22.077,0.236c-0.039,0.25-0.08,0.503-0.12,0.752
		c4.352,1.416,8.702,2.836,13.052,4.252c-0.09,0.297-0.181,0.594-0.271,0.89c-4.818-0.516-9.638-1.031-14.456-1.551
		c-0.05,0.191-0.1,0.385-0.149,0.573c4.571,1.969,9.144,3.938,13.48,5.806c-1.789,4.812-3.405,9.046-4.936,13.314
		c-0.863,2.408-0.125,4.263,2.101,5.617c2.257,1.379,4.425,2.902,6.63,4.362c-0.091,0.396-0.184,0.789-0.275,1.185
		c-4.934,0-9.863,0-14.797,0c6.8,4.547,13.975,4.559,21.193,2.814c1.073-0.26,2.238-2.33,2.361-3.658
		c0.1-1.068-1.092-2.56-2.11-3.352c-1.27-0.984-3.21-1.153-4.383-2.209c-1.322-1.184-3.155-3.146-2.929-4.447
		c0.58-3.312,2.562-6.551,6.335-6.564c1.511-0.006,4.021,2.354,4.359,3.992C55.161,256.873,58.3,257.562,62.678,257.696z
		 M36.273,166.62c0.017,0.197,0.034,0.391,0.05,0.587c6.841-0.712,13.706-1.251,20.5-2.272c1.495-0.225,3.768-2.04,3.926-3.338
		c1.146-9.438,1.932-18.922,2.63-28.408c0.202-2.749-0.939-6.241-3.791-5.968c-5.452,0.52-12.335,0.722-15.837,4.018
		c-7.644,7.193-13.61,16.188-20.091,24.579c-1.302,1.686-2.116,3.888-2.667,5.981c-0.764,2.904,0.245,4.873,3.693,4.833
		C28.548,166.585,32.411,166.62,36.273,166.62z M56.708,357.166c-0.167,0.236-0.332,0.472-0.499,0.708
		c10.129,7.85,20.267,15.685,30.367,23.567c0.929,0.726,2.452,1.933,2.301,2.597c-1.302,5.705,2.397,4.74,5.573,4.339
		c14.626-1.841,29.246-3.735,43.865-5.62c8.198-1.059,16.39-2.161,24.589-3.203c3.22-0.408,3.463-2.646,3.321-5.154
		c-0.162-2.854-2.073-2.778-4.15-2.476c-1.093,0.162-2.202,0.179-3.294,0.316c-19.827,2.462-39.678,4.748-59.457,7.536
		c-4.772,0.671-8.391-0.28-12.251-2.887C77.071,370.136,66.845,363.716,56.708,357.166z M153.4,328.179
		c0-7.684,0.054-14.845-0.071-22.003c-0.017-0.89-0.769-2.157-1.548-2.579c-4.979-2.697-10.065-3.729-15.172-0.195
		c-1.325,0.918-2.692,1.771-4.432,2.914c-0.307-4-0.577-7.557-0.852-11.113c-0.433,0.051-0.866,0.098-1.3,0.148
		c0,11.621,0,23.243,0,35.011C137.826,329.632,145.355,328.931,153.4,328.179z M211.115,322.856
		c7.044-0.647,13.992-1.281,21.275-1.949c0-7.971,0.066-15.536-0.092-23.096c-0.021-0.91-1.071-2.179-1.973-2.619
		c-4.211-2.084-8.449-2.254-12.521,0.524c-1.321,0.9-2.707,1.706-4.438,2.792c-0.283-3.965-0.533-7.455-0.782-10.941
		c-0.488,0.024-0.979,0.056-1.471,0.082C211.115,299.183,211.115,310.718,211.115,322.856z M80.354,56.688
		c6.021,12.863,5.917,25.226-0.027,37.791c5.331-0.232,10.593-0.177,15.763-0.832c1.986-0.253,4.683-1.688,5.487-3.345
		c4.963-10.208,4.936-20.755,0.519-31.144c-0.682-1.598-2.948-3.555-4.494-3.567C91.887,55.549,86.168,56.254,80.354,56.688z
		 M176.021,377.868c9.329-1.194,17.674-2.267,26.021-3.328c13.689-1.746,27.368-3.521,41.063-5.199
		c3.059-0.374,4.443-1.874,4.188-4.916c-0.29-3.479-2.667-2.733-4.892-2.461c-16.842,2.07-33.689,4.104-50.531,6.174
		c-4.929,0.604-9.852,1.265-14.773,1.933c-3.062,0.415-3.233,2.773-2.884,5C174.392,376.215,175.565,377.203,176.021,377.868z
		 M126.12,313.035c-4.422-0.521-8.544-0.401-12.216-1.632c-2.729-0.914-4.912-2.378-7.712,0.788c0-3.302,0.04-5.775-0.012-8.243
		c-0.05-2.256,1.293-4.872-2.044-7.637c0,12.762,0,24.359,0,36.387c6.587-0.59,13.108-1.177,19.876-1.784
		C124.774,324.447,125.496,318.321,126.12,313.035z M188.344,304.248c0-4.733,0-9.464,0-14.197c-0.37,0.017-0.737,0.037-1.108,0.058
		c0,11.504,0,23.005,0,34.939c5.958-0.543,11.78-1.072,17.778-1.622c0.73-6.618,1.423-12.842,2.01-18.143
		c-4.134-0.647-7.883-0.647-11.13-1.925C193.081,302.249,190.993,301.167,188.344,304.248z M266.002,257.837
		c6.366-1.898,10.324-5.734,12.023-11.703c2.377-8.361,0.782-16.103-4.516-22.947c-0.846-1.092-2.714-2.047-4.038-1.961
		c-2.51,0.154-4.216,1.553-3.735,4.643c0.29,1.881,0.03,3.847,0.057,5.771c0.048,3.75-0.605,7.508,2.81,10.625
		c0.961,0.873,0.843,4.857-0.139,5.586C264.728,250.619,265.911,254.01,266.002,257.837z M265.965,162.41
		c2.22,0,3.992-0.013,5.764,0.002c2.718,0.025,4.146-1.158,3.894-4.019c-0.688-7.778-3.806-14.554-8.536-20.653
		c-0.142-0.184-0.726-0.023-1.12-0.023C265.965,145.741,265.965,153.7,265.965,162.41z M22.999,189.53c12.165,0,23.394,0,35.182,0
		C50.729,184.619,29.482,184.445,22.999,189.53z M24.056,198.237c11.27,2.168,22.493,2.103,33.656-0.698
		C46.44,195.284,35.218,195.366,24.056,198.237z M56.947,206.082c-10.593,0-21.332,0-32.07,0
		C30.087,211.06,49.512,210.409,56.947,206.082z M23.66,216.619c7.844,4.993,27.562,2.89,32.855-2.66
		C45.998,214.812,35.298,215.678,23.66,216.619z M57.067,180.197c-7.652-4.892-29.699-5.715-33.003-1.293
		C35.012,179.333,46.069,179.767,57.067,180.197z M119.367,17.122c5.123-1.664,6.972-5.385,5.086-10.872
		c-0.425-1.235-2.808-1.799-5.086-3.141C119.367,8.697,119.367,12.791,119.367,17.122z M205.188,17.293
		c0-3.24-0.111-6.108,0.029-8.963c0.176-3.525-1.614-3.793-4.325-3.04c0,4.076,0,7.972,0,12.003
		C202.39,17.293,203.597,17.293,205.188,17.293z M273.791,190.627c-6.42-2.156-7.69-1.814-7.465,1.586
		C268.844,191.677,271.316,191.153,273.791,190.627z M265.921,179.858c0.729,3.493,3.845,4.144,8.431,2.094
		C271.373,181.212,268.905,180.6,265.921,179.858z M274.135,206.76c-0.201-0.413-0.4-0.833-0.601-1.249
		c-2.373,1.547-6.14,0.258-7.791,3.279c0.239,0.488,0.475,0.979,0.714,1.463C269.017,209.09,271.575,207.927,274.135,206.76z"/>
	<path fill="#FFFFFF" d="M167.564,134.678c23.188,0,46.383-0.003,69.577,0.004c6.305,0.001,6.602,0.29,7.149,6.686
		c2.863,33.344,2.664,66.703,0.482,100.07c-0.404,6.152-0.532,6.287-6.537,7.515c-9.862,2.01-19.729,4.022-29.62,5.866
		c-1.504,0.277-3.298-0.033-4.747-0.604c-23.181-9.062-45.625-6.922-67.635,4.016c-2.188,1.086-4.95,1.559-7.411,1.457
		c-11.025-0.448-22.032-1.396-33.059-1.756c-4.398-0.146-6.083-1.812-6.382-6.101c-1.887-27.146-2.573-54.307-1.265-81.496
		c0.471-9.78,1.223-19.548,1.851-29.321c0.32-4.971,1.305-5.927,6.345-5.931c23.75-0.017,47.5-0.007,71.246-0.007
		C167.561,134.945,167.564,134.812,167.564,134.678z M174.152,213.608c0.188-2.606,0.047-4.883,0.631-6.955
		c0.323-1.151,1.82-2.743,2.852-2.793c4.4-0.213,8.831-0.039,13.23,0.264c1.144,0.079,2.899,0.904,3.189,1.779
		c0.744,2.254,0.825,4.725,1.2,7.279c-2.304,0.354-4.134,0.639-6.483,0.998c3.048,1.012,5.572,1.853,7.443,2.473
		c4.879-2.441,10.636,0.297,15.918-2.653c-5.245-0.455-9.739-0.847-14.399-1.254c0.263-1.552,0.661-2.899,0.685-4.252
		c0.059-3.306,1.281-4.796,4.916-4.912c5.334-0.169,10.646-1.084,15.965-1.683c-5.604-1.25-11.2-1.913-16.813-2.354
		c-2.522-0.199-3.581-1.292-3.857-3.783c-0.455-4.157-1.204-8.284-1.827-12.423c-1.225,4.245-1.771,8.473-2.535,12.66
		c-0.188,1.027-1.075,2.729-1.695,2.752c-5.587,0.214-11.188,0.126-16.787,0.126c-0.051-7.584-0.051-7.576,7.141-9.489
		c1.977-0.526,3.936-1.114,5.9-1.672c-7.391-2.432-16.144-2.927-13.126-14.258c10.682-0.53,21.45-1.066,32.216-1.602
		c-0.007-0.546-0.013-1.09-0.02-1.635c-10.973-0.511-21.939-1.021-33.355-1.555c-0.26-2.149-0.561-4.647-0.863-7.183
		c7.095-0.663,13.683-1.28,20.273-1.896c-0.014-0.396-0.027-0.79-0.044-1.185c-5.998-0.471-12.003-0.854-17.987-1.478
		c-1.325-0.136-2.56-1.122-3.482-1.552c-1.251,0.497-2.623,1.411-4.072,1.558c-6.086,0.611-12.192,0.994-18.292,1.46
		c-0.008,0.396-0.02,0.79-0.028,1.185c6.972,0.666,13.943,1.332,20.975,2.003c-0.349,2.818,0.117,5.747-1.131,7.296
		c-1.224,1.516-4.189,1.625-6.437,2.367c2,0.361,3.979,0.719,6.193,1.118c-0.37,3.339-0.583,6.356-1.119,9.315
		c-0.146,0.792-1.23,1.943-1.974,2.015c-5.19,0.492-10.403,0.745-15.646,1.077c-0.673-2.268-1.261-4.252-2.066-6.964
		c-2.381,7.463-2.381,7.461-9.795,7.8c-0.964,0.044-1.93,0.067-2.893,0.144c-5.561,0.434-11.118,0.882-16.676,1.323
		c6.907,1.174,13.763,1.762,20.627,1.973c4.475,0.138,8.113,0.841,8.298,6.36c0.002,0.064,0.448,0.114,0.764,0.19
		c0.576-1.91,1.153-3.82,1.704-5.645c3.901,0.24,7.337,0.486,10.776,0.654c7.112,0.351,7.116,0.336,7.292,7.536
		c0.011,0.383-0.143,0.771-0.283,1.491c-15.895,0.649-31.803,1.299-47.712,1.947c0.002,0.072,0.004,0.146,0.007,0.218
		c16.1,0.541,32.199,1.082,48.555,1.634c0.371,3.592,0.698,6.795,1.061,10.322c-6.376-0.327-12.133-0.646-17.895-0.91
		c-8.047-0.367-8.045-0.351-10.327-7.828c-0.115-0.381-0.338-0.729-0.653-1.4c-0.423,1.604-1.016,2.91-1.072,4.242
		c-0.17,3.881-2.296,5.021-5.88,5.102c-3.837,0.088-7.659,0.697-11.487,1.082c-0.027,0.229-0.054,0.459-0.081,0.688
		c5.396,0.645,10.791,1.287,16.246,1.936c0.754,2.775,1.478,5.433,2.453,9.029c0.934-3.646,1.61-6.289,2.335-9.123
		c8.083-0.416,16.054-0.914,24.034-1.12c0.924-0.023,2.448,1.44,2.722,2.472c0.549,2.055,0.418,4.285,0.59,6.725
		c-5.682,0.347-10.943,0.67-16.204,0.99c0.015,0.432,0.026,0.862,0.037,1.295c10.804,0,21.605,0,32.404,0
		c0.011-0.414,0.017-0.837,0.023-1.255c-4.89-0.329-9.777-0.664-14.63-0.991c0.011-7.158,0.011-7.158,4.094-10.447
		C176.348,214.05,175.413,213.86,174.152,213.608z M148.724,171.726c-0.002-0.388-0.002-0.777-0.004-1.165
		c-8.665,0-17.331,0-25.996,0c0,0.388,0,0.777,0,1.165C131.39,171.726,140.057,171.726,148.724,171.726z M217.319,188.179
		c0.003-0.467,0.007-0.932,0.01-1.397c-4.538,0-9.076,0-13.611,0c0,0.466,0,0.931,0.005,1.397
		C208.253,188.179,212.788,188.179,217.319,188.179z"/>
	<path fill="#FFFFFF" d="M169.628,81.219c10.738,0,21.478-0.052,32.216,0.027c3.857,0.026,5.099,1.734,5.004,5.892
		c-0.077,3.375-1.849,4.621-4.996,4.552c-21.339-0.469-42.68-0.912-64.019-1.388c-4.823-0.107-5.546-1.097-5.604-5.989
		c-0.052-4.419,2.667-4.774,6.014-4.759c10.462,0.047,20.924,0.017,31.387,0.017C169.628,80.121,169.628,80.669,169.628,81.219z"/>
	<path fill="#FFFFFF" d="M142.698,64.471c-0.636-0.125-2.429-0.317-4.127-0.83c-7.593-2.284-12.057-9.169-10.472-16.001
		c1.485-6.415,9.213-11.035,16.573-9.966c5.296,0.769,9.799,2.855,12.632,7.616c2.365,3.976,2.537,8.112,0.248,12.186
		C155.062,61.904,149.817,64.52,142.698,64.471z"/>
	<path fill="#FFFFFF" d="M196.021,40.483c8.042-0.047,14.31,5.331,14.37,12.327c0.058,6.511-5.632,11.607-13.019,11.656
		c-7.492,0.052-13.989-5.616-14.117-12.319C183.128,45.384,188.444,40.526,196.021,40.483z"/>
	<path fill="#FFFFFF" d="M121.034,370.824c-8.154,0.734-16.062,1.555-23.991,2.025c-0.943,0.059-2.02-1.77-2.988-2.768
		c-0.141-0.146-0.021-0.536-0.03-0.81c-0.48-13.126-0.407-13.464,12.629-15.526c12.37-1.955,24.805-3.523,37.239-5.023
		c3.646-0.44,7.391-0.066,11.09-0.066c0.044,0.377,0.088,0.755,0.131,1.129c-2.938,0.503-5.91,0.859-8.807,1.541
		c-6.952,1.629-14.037,2.917-20.749,5.26C118.713,358.98,117.297,364.047,121.034,370.824z"/>
	<path fill="#FFFFFF" d="M97.389,352.226c3.188-5.351,17.617-7.12,27.295-3.653C115.486,349.802,106.618,350.989,97.389,352.226z"/>
	<path fill="#FFFFFF" d="M193.991,361.511c-0.436,0.169-0.81,0.452-1.17,0.437c-3.493-0.152-6.986-0.352-10.476-0.536
		c0.073-4.636-0.308-9.351,0.48-13.857c0.26-1.504,3.396-3.236,5.429-3.573c9.913-1.652,19.884-2.997,29.862-4.179
		c5.044-0.597,10.155-0.66,15.24-0.853c1.284-0.051,2.586,0.319,3.823,1.067c-11.564,2.044-23.146,3.982-34.688,6.164
		c-9.552,1.808-11.234,4.754-8.577,14.117C194.021,360.666,193.968,361.077,193.991,361.511z"/>
	<path fill="#FFFFFF" d="M202.96,338.682c-6.35,1.069-12.367,2.08-18.251,3.071C186.738,336.595,192.251,335.543,202.96,338.682z"/>
	<path fill="#FFFFFF" d="M56.719,132.714c1.645,9.292-1.653,14.284-10.272,16.828c-2.451,0.725-4.537,2.684-6.791,4.076
		c1.63,2.04,3.198,4.135,4.924,6.091c0.681,0.771,1.713,1.229,2.456,2.851c-6.207,0-12.421,0.179-18.617-0.074
		c-3.188-0.132-4.112-1.978-2.021-4.73c5.757-7.579,11.389-15.257,17.337-22.686C47.279,130.641,52.228,132.505,56.719,132.714z"/>
	<path fill="#FFFFFF" d="M101.42,81.794c-1.324,9.144-2.769,9.975-15.995,9.222c0.536-2.506,1.149-4.96,1.567-7.448
		c0.406-2.43,0.61-4.893,0.912-7.406C94.722,72.443,96.753,80.291,101.42,81.794z"/>
</g>
</svg>
