{
  "name": "",
  "css_prefix_text": "icon-",
  "css_use_suffix": false,
  "hinting": true,
  "units_per_em": 1000,
  "ascent": 850,
  "glyphs": [
    {
      "uid": "4a6239fa5c198d5d0b62b0f488e3ab8e",
      "css": "3d-printer",
      "code": 59392,
      "src": "custom_icons",
      "selected": true,
      "svg": {
        "path": "M482.5 439.6V644.2C500.1 646.4 523.8 648.1 555.3 648.1 612.8 648.1 659.7 634.5 689.2 607.7 717.3 582.2 735.3 542.8 735.3 490.1 735.3 439.7 717.7 404.5 689.2 381.3 662 358.4 623.8 347 568.5 347L482.5 347.7V389.8L573.3 389.2C640.9 389.2 678.7 426.5 678.2 491.8 678.2 566.9 636.5 605.5 566.3 605.1 555.3 605.1 544 605.1 536.5 603.8V439.5H482.5ZM352.1 605.4C323.9 605.4 296.2 594 284.8 587.2L272.1 629.5C288.1 639.9 318.9 649.8 354.8 649.8 427.9 649.8 469.6 610.4 469.6 560.4 469.6 520.5 440.6 493.2 404.7 486.9V486C441 473.2 459.1 447.9 459.1 416.9 459.1 378.3 427.9 344.8 367 344.8 331.6 344.8 298.9 355.7 282.1 367.5L294.9 407.9C307.1 399.7 331.1 389.2 355.2 389.2 387.4 389.2 402.5 406 402.5 426.1 402.5 455.6 369.8 467.4 343.9 467.4H318.9V508.2H344.8C378.8 508.2 411.5 523.2 411.5 558.1 412 581.3 394.7 605.4 352.1 605.4ZM171.6 214L333.6 265.9C334.7 267.6 336.6 268.6 338.6 268.6 339.2 268.6 339.8 268.5 340.5 268.3L340.7 268.2 494.5 317.6C495.1 317.8 495.7 317.9 496.4 317.9 497 317.9 497.6 317.8 498.2 317.6L645.9 270.2C646 270.2 646.1 270.3 646.3 270.3 647.6 270.3 649 269.8 650 268.9L974.7 164.7C977.2 163.9 978.9 161.6 978.9 158.9 978.9 156.3 977.2 154 974.7 153.2L498.1 0.3C497-0.1 495.7-0.1 494.5 0.3L18 153.2C15.5 154 13.8 156.3 13.8 158.9S15.5 163.9 18 164.7L171.6 214C171.6 214 171.6 214 171.6 214ZM340.6 255.5L192.8 208.1 329.1 162.4 472.4 211.3 340.6 255.5ZM347.9 156.1L494.3 107 639.3 155.4 491.2 205 347.9 156.1ZM496.3 305.5L360 261.7 491.2 217.7 626.3 263.8 496.3 305.5ZM645.5 257.6L510.1 211.4 658.3 161.7 798.7 208.5 645.5 257.6ZM806.7 111.9L953.1 158.9 817.5 202.4C817 202 816.4 201.7 815.8 201.5L677.3 155.3 806.5 112C806.5 112 806.6 112 806.7 111.9ZM787.3 105.7L658.3 149 513.3 100.6 639.5 58.3 787.3 105.7ZM496.3 12.4L620.1 52.1 494.3 94.3 370.1 52.9 496.3 12.4ZM350.8 59.1C351 59.1 351.1 59.3 351.3 59.4L475.2 100.7 329.1 149.7 202.7 106.6 350.8 59.1ZM184.2 112.5C184.8 113 185.4 113.4 186.2 113.7L310.2 156 173.4 201.9 39.6 158.9 184.2 112.5ZM982.1 835.3L505.6 679.7C504.4 679.3 503.1 679.3 501.8 679.7L25.3 835.3C22.9 836.1 21.2 838.4 21.2 841.1 21.2 843.7 22.9 846 25.4 846.8L174.9 894.8C175.3 895 175.8 895.1 176.3 895.2L501.9 999.7C502.4 999.9 503.1 1000 503.7 1000 504.3 1000 504.9 999.9 505.5 999.7L982 846.8C984.5 846 986.2 843.7 986.2 841.1 986.2 838.4 984.5 836.1 982.1 835.3ZM646.2 738.4L793.1 786.3 662.3 830.7 516.8 781.9 645.4 738.8C645.7 738.7 645.9 738.5 646.2 738.4ZM643.4 837.1L500.5 885.5 353.7 836.6 497.8 788.3 643.4 837.1ZM503.7 691.8L627.2 732.2 497.8 775.6 374.2 734.1 503.7 691.8ZM355 740.4C355.1 740.4 355.2 740.5 355.3 740.5L478.8 781.9 334.6 830.3 208.5 788.2 355 740.4ZM46.8 841L189.5 794.4C189.7 794.6 189.9 794.8 190.2 794.8L315.6 836.7 177.5 882.9 46.8 841ZM196.9 889.2L334.6 843 481.6 892 347.4 937.5 196.9 889.2ZM503.7 987.6L366.7 943.6 500.5 898.3 638.6 944.3 503.7 987.6ZM657 938.4C656.3 937.8 655.6 937.3 654.7 937L519.4 891.9 662.3 843.4 804.5 891.1 657 938.4ZM823.9 884.9L681.1 837 810.4 793.2C810.9 793 811.3 792.7 811.7 792.4L960.6 841 823.9 884.9ZM21.2 207.2V774.1C21.2 777.5 23.9 780.2 27.2 780.2 30.6 780.2 33.3 777.5 33.3 774.1V207.2C33.3 203.9 30.6 201.2 27.2 201.2 23.9 201.2 21.2 203.9 21.2 207.2ZM180.2 270V711.4C180.2 714.2 182.5 716.5 185.4 716.5 188.2 716.5 190.5 714.2 190.5 711.4V270C190.5 267.1 188.2 264.8 185.4 264.8 182.5 264.8 180.2 267.1 180.2 270ZM968.9 202.5C965.5 202.5 962.8 205.2 962.8 208.5V775.5C962.8 778.8 965.5 781.5 968.9 781.5S974.9 778.8 974.9 775.5V208.5C974.9 205.2 972.2 202.5 968.9 202.5ZM805.6 271.3V712.7C805.6 715.6 807.9 717.9 810.8 717.9 813.6 717.9 815.9 715.6 815.9 712.7V271.3C815.9 268.4 813.6 266.1 810.8 266.1 807.9 266.1 805.6 268.4 805.6 271.3Z",
        "width": 1000
      },
      "search": [
        "3d-printer"
      ]
    },
    {
      "uid": "2835f793ba5c95c106478bb5ba9ea040",
      "css": "ultimaker_logo",
      "code": 59393,
      "src": "custom_icons",
      "selected": true,
      "svg": {
        "path": "M609.7 711.1C609.7 739.6 609.6 767.8 610 796 610 798.5 613 802 615.4 803 631 809.8 638.4 822.3 640.6 838.2 641.8 846.1 641.7 854.1 641.7 862 641.9 873.2 643.1 883.3 648.5 894.3 659.1 915.7 650.1 944.7 616.2 949.6 558.6 957.9 500.7 964.7 443 972.2 373.7 981.1 304.4 989.7 235.2 999.2 215.1 1001.9 198.5 998.1 183 984.1 159 962.3 133.6 942.1 108.7 921.3 88.6 904.5 86.3 889.7 99.9 867.3 101.4 864.8 102.1 861.6 102.3 858.6 102.6 851.4 102.4 844.1 102.4 836.9 102.5 821.7 107.4 808 118.8 798.1 126.5 791.4 128.3 784.2 128.1 774.7 127.6 750 127.9 725.3 127.9 701.2 111.1 699.3 95 699.3 79.9 695.3 42.5 685.5 18.3 659.3 4 624.9-4.9 603.2 1.9 581.4 15.8 563.5 25.5 551.1 28.1 538.6 27.5 523.6 26.5 498.8 27.5 473.9 27 449.1 26.9 444.7 24.4 439.5 21.4 436 13.3 426.3 11.1 411.7 19.1 398.2 27.6 383.8 37.8 370.2 47.6 356.5 51.4 351.2 55.9 346.4 60.2 341.4 97.3 298.5 97.4 298.5 152.4 283.5 155.4 282.7 158.3 281.6 162.2 280.4 161.6 266.5 162.9 253.7 155 239.4 136.9 206.7 138.6 171.8 154.8 138.2 162.4 122.4 177.2 118.1 193.3 115.9 198.7 115.2 204.5 112.8 209 109.6 222.5 100 235.2 89.3 248.8 79.9 255.3 75.3 257.4 70.2 257.1 62.6 256.6 49.2 257.4 35.7 256.8 22.2 256.4 12.6 260.6 6.8 269.6 5.2 282.7 2.8 295.9 0.1 309.2 0 320.9-0.1 323.7 4.7 323.8 16.6 323.8 22.4 323.8 28.2 323.8 34.1 369.2 36.4 413.8 38.6 459.8 41 459.8 34.2 458.7 27.8 460.1 22 461.4 17 464.7 9.6 468.6 8.6 482.4 5.1 496.7 2.8 510.9 1.9 520.3 1.3 526.1 6.9 525.4 17.6 524.7 26.5 525.2 35.5 525.2 44.8 530.4 46.7 535.3 48.2 540 50.2 566 61.1 579.7 81.6 579.7 109.7 579.7 114.2 580 118.7 579.7 123.2 578.9 133.4 581 140.6 590.5 148.1 616.1 168.4 611.9 217.1 584.7 235.7 582.5 237.2 580.1 240.2 580 242.6 579.4 252.2 579.7 261.8 579.7 270.5 595.7 274.8 610.6 278.3 625.2 282.9 654.8 292.1 680 307.1 692.8 337.4 700.6 356.1 708.6 374.8 715.9 393.7 719.6 403.1 717.2 411.8 709.9 419.3 707.8 421.5 706.1 425.1 706.1 428.1 705.9 460.8 705.7 493.6 706.2 526.4 706.3 531 709.1 536.1 712.1 540 744.8 582.4 731.1 627.5 706.6 653.1 696.5 663.7 683.7 669.3 669.7 672.7 667.2 673.2 663.7 675.3 663.2 677.3 659.4 694.7 646.5 701.7 631.3 706.1 624.6 707.9 617.9 709.2 609.7 711.1ZM248.7 310.2C241.9 310.2 235.8 309.9 229.6 310.3 205.8 311.5 192.7 325.5 192.7 349.4 192.6 458 192.6 566.6 192.7 675.2 192.7 695.2 203.9 707.7 223.6 709.4 229.7 709.9 236 708.6 242.2 708.7 248.4 708.7 252.2 706.4 254.3 700.1 257.3 691 264 686.8 273.9 686.5 292.8 685.7 311.7 684.2 330.6 683 406.9 678.5 483.3 674.2 559.6 669.3 571.1 668.6 580.5 669.1 583.3 682.6 590.2 682 596.3 681.5 602.5 681 624.1 679.5 637 665.7 637.1 644 637.1 544.7 637.1 445.4 637.1 346.1 637.1 324.2 624.8 311.5 602.8 310.8 597.3 310.6 592.5 311.3 589.9 304 588.8 300.9 582.3 298.3 578.1 297.9 566.4 296.9 554.7 297.1 543 297 451.3 295.8 359.6 294.6 268 293.5 252.6 293.4 251.9 294.1 248.7 310.2ZM423.1 268.1C423.1 269.2 423.1 270.4 423.1 271.5 457.2 271.5 491.3 271 525.4 271.8 536.7 272 540.9 266 543.3 257.3 544.6 252.7 544.6 247.7 544.6 242.9 544.7 200.1 544.7 157.4 544.6 114.6 544.6 87 531.3 73.5 503.9 72.3 471.5 70.9 439.2 69 406.8 67.3 383.4 66.1 360 64.6 336.6 63.9 314.9 63.3 299.5 76.5 299.4 95.5 299.1 145.5 298.8 195.6 299.6 245.6 299.8 262 304.8 268.6 322.8 268.3 356.2 267.7 389.6 268.1 423.1 268.1ZM156.5 850.6C156.1 851.2 155.7 851.8 155.3 852.4 175.7 867.7 195.7 883.5 216.7 898 226 904.5 229.6 911.5 228.8 922.7 227.8 935.2 232.9 939.7 245.3 938.3 296 932.7 346.6 926.8 397.2 920.7 399.7 920.4 403.5 916.4 403.6 914 404.2 901.3 404.4 888.5 403.7 875.8 402.5 856.8 390.5 846.6 371.3 848.5 338.7 851.6 306.2 856.3 273.6 858.5 250.5 860.1 233.7 867.9 228.1 892.9 203.6 878.4 180 864.5 156.5 850.6ZM606 894.2C606 877.7 607.3 862.1 605.7 846.9 604.1 832.5 593.2 824.6 579.5 826 544.9 829.4 510.3 833 475.7 837.2 458.7 839.3 446.9 853.5 446.3 870.7 446 879.3 446.2 887.9 446.2 896.6 446.3 908.6 448.3 911 460.3 911.6 464 911.9 467.9 911.6 471.6 911.2 497.6 908.1 523.6 905 549.6 901.8 568.7 899.4 587.7 896.7 606 894.2ZM156.6 643.7C157.1 638.4 159 633.1 158 628.4 155.1 614.7 151.3 601.2 147.5 587.6 144.7 577.8 140.3 573 127.8 574.6 109.7 576.9 91.1 575.2 72.6 575.2 72.5 575.8 72.4 576.5 72.3 577.1 83.2 580.6 94.1 584.2 104.9 587.7 104.7 588.4 104.5 589.2 104.3 589.9 92.2 588.6 80.2 587.3 68.2 586 68 586.5 67.9 587 67.8 587.5 79.2 592.4 90.6 597.3 101.5 602 97 614 93 624.6 89.1 635.2 87 641.3 88.8 645.9 94.4 649.3 100 652.7 105.4 656.5 110.9 660.2 110.7 661.2 110.5 662.1 110.2 663.1 97.9 663.1 85.6 663.1 73.3 663.1 90.3 674.5 108.2 674.5 126.2 670.2 128.9 669.5 131.8 664.3 132.1 661 132.4 658.3 129.4 654.6 126.9 652.6 123.7 650.2 118.8 649.8 115.9 647.1 112.6 644.2 108 639.3 108.6 636 110 627.7 115 619.7 124.4 619.6 128.2 619.6 134.5 625.5 135.3 629.6 137.8 641.6 145.6 643.3 156.6 643.7ZM90.6 416.2C90.6 416.7 90.7 417.2 90.7 417.7 107.8 415.9 125 414.5 141.9 412 145.7 411.4 151.3 406.9 151.7 403.6 154.6 380.1 156.6 356.4 158.3 332.7 158.8 325.8 156 317.1 148.8 317.8 135.2 319.1 118 319.6 109.3 327.8 90.2 345.8 75.3 368.2 59.1 389.2 55.8 393.4 53.8 398.9 52.4 404.1 50.5 411.4 53 416.3 61.7 416.2 71.3 416.1 81 416.2 90.6 416.2ZM141.6 892.1C141.2 892.7 140.8 893.3 140.4 893.9 165.7 913.5 191 933.1 216.3 952.8 218.6 954.6 222.4 957.6 222 959.3 218.7 973.5 228 971.1 235.9 970.1 272.5 965.5 309 960.8 345.5 956.1 366 953.4 386.4 950.7 406.9 948.1 414.9 947 415.6 941.4 415.2 935.2 414.8 928.1 410 928.2 404.8 929 402.1 929.4 399.3 929.4 396.6 929.8 347.1 935.9 297.5 941.6 248.1 948.6 236.2 950.3 227.1 947.9 217.5 941.4 192.5 924.5 167 908.5 141.6 892.1ZM383.2 819.7C383.2 800.5 383.3 782.7 383 764.8 382.9 762.5 381.1 759.4 379.1 758.3 366.7 751.6 354 749 341.2 757.8 337.9 760.1 334.5 762.3 330.2 765.1 329.4 755.1 328.7 746.2 328 737.4 326.9 737.5 325.9 737.6 324.8 737.7 324.8 766.8 324.8 795.8 324.8 825.2 344.3 823.4 363.1 821.6 383.2 819.7ZM527.3 806.4C544.9 804.8 562.3 803.2 580.5 801.6 580.5 781.7 580.6 762.8 580.2 743.9 580.2 741.6 577.6 738.4 575.3 737.3 564.8 732.1 554.2 731.7 544 738.6 540.7 740.9 537.3 742.9 533 745.6 532.2 735.7 531.6 727 531 718.3 529.8 718.4 528.6 718.4 527.3 718.5 527.3 747.3 527.3 776.1 527.3 806.4ZM200.7 141.6C215.7 173.7 215.5 204.6 200.6 236 214 235.4 227.1 235.5 240 233.9 245 233.3 251.7 229.7 253.7 225.6 266.1 200.1 266 173.7 255 147.8 253.3 143.8 247.7 138.9 243.8 138.9 229.5 138.8 215.2 140.5 200.7 141.6ZM439.7 943.8C463 940.9 483.8 938.2 504.7 935.5 538.9 931.2 573 926.7 607.2 922.5 614.9 921.6 618.3 917.9 617.7 910.3 617 901.6 611 903.4 605.5 904.1 563.4 909.3 521.3 914.4 479.3 919.5 466.9 921 454.6 922.7 442.4 924.4 434.7 925.4 434.3 931.3 435.2 936.9 435.6 939.7 438.5 942.2 439.7 943.8ZM315 781.9C304 780.6 293.7 780.9 284.5 777.8 277.7 775.5 272.2 771.9 265.2 779.8 265.2 771.5 265.3 765.4 265.2 759.2 265.1 753.6 268.4 747 260.1 740.1 260.1 772 260.1 801 260.1 831 276.6 829.5 292.9 828.1 309.8 826.6 311.7 810.4 313.5 795.1 315 781.9ZM470.4 760C470.4 748.1 470.4 736.3 470.4 724.5 469.5 724.5 468.6 724.6 467.7 724.6 467.7 753.4 467.7 782.1 467.7 811.9 482.6 810.6 497.1 809.2 512.1 807.9 513.9 791.3 515.6 775.8 517.1 762.5 506.8 760.9 497.4 760.9 489.3 757.7 482.3 755 477.1 752.3 470.4 760ZM664.4 644C680.3 639.3 690.2 629.7 694.5 614.8 700.4 593.9 696.4 574.6 683.2 557.5 681.1 554.8 676.4 552.4 673.1 552.6 666.8 553 662.6 556.5 663.8 564.2 664.5 568.9 663.8 573.8 663.9 578.6 664 588 662.4 597.3 670.9 605.1 673.3 607.3 673 617.3 670.6 619.1 661.2 626 664.2 634.5 664.4 644ZM664.3 405.7C669.9 405.7 674.3 405.6 678.7 405.7 685.5 405.7 689.1 402.8 688.5 395.6 686.7 376.2 678.9 359.3 667.1 344 666.8 343.6 665.3 344 664.3 344 664.3 364 664.3 383.9 664.3 405.7ZM57.4 473.4C87.8 473.4 115.9 473.4 145.3 473.4 126.7 461.1 73.6 460.7 57.4 473.4ZM60.1 495.2C88.2 500.6 116.3 500.4 144.2 493.4 116 487.8 88 488 60.1 495.2ZM142.2 514.8C115.8 514.8 89 514.8 62.1 514.8 75.2 527.2 123.7 525.6 142.2 514.8ZM59.1 541.1C78.7 553.5 127.9 548.3 141.2 534.4 114.9 536.6 88.2 538.7 59.1 541.1ZM142.5 450.1C123.4 437.9 68.4 435.8 60.1 446.9 87.5 447.9 115.1 449 142.5 450.1ZM298.2 42.8C311 38.6 315.6 29.3 310.9 15.6 309.8 12.5 303.8 11.1 298.2 7.8 298.2 21.7 298.2 31.9 298.2 42.8ZM512.5 43.2C512.5 35.1 512.2 27.9 512.6 20.8 513 12 508.6 11.3 501.8 13.2 501.8 23.4 501.8 33.1 501.8 43.2 505.5 43.2 508.5 43.2 512.5 43.2ZM683.9 476.2C667.8 470.8 664.7 471.6 665.2 480.1 671.5 478.8 677.7 477.5 683.9 476.2ZM664.2 449.3C666 458 673.8 459.6 685.3 454.5 677.8 452.6 671.7 451.1 664.2 449.3ZM684.7 516.4C684.2 515.4 683.7 514.4 683.2 513.3 677.3 517.2 667.9 514 663.8 521.5 664.4 522.7 665 524 665.6 525.2 672 522.3 678.3 519.4 684.7 516.4ZM418.5 336.4C476.5 336.4 534.4 336.4 592.3 336.4 608.1 336.4 608.8 337.1 610.2 353.1 617.3 436.4 616.8 519.7 611.4 603.1 610.4 618.4 610.1 618.8 595.1 621.8 570.4 626.9 545.8 631.9 521.1 636.5 517.3 637.2 512.8 636.4 509.2 635 451.3 612.3 395.3 617.7 340.3 645 334.8 647.7 327.9 648.9 321.8 648.7 294.2 647.5 266.7 645.2 239.2 644.3 228.2 643.9 224 639.7 223.3 629 218.5 561.2 216.8 493.4 220.1 425.5 221.3 401 223.2 376.6 224.7 352.2 225.5 339.8 228 337.4 240.6 337.4 299.9 337.4 359.2 337.4 418.5 337.4 418.5 337.1 418.5 336.7 418.5 336.4ZM435 533.6C435.5 527 435.1 521.4 436.6 516.2 437.4 513.3 441.1 509.3 443.7 509.2 454.7 508.7 465.8 509.1 476.7 509.9 479.6 510.1 484 512.1 484.7 514.3 486.6 519.9 486.8 526.1 487.7 532.5 482 533.4 477.4 534.1 471.5 535 479.1 537.5 485.4 539.6 490.1 541.2 502.3 535.1 516.7 541.9 529.9 534.5 516.8 533.4 505.5 532.4 493.9 531.4 494.6 527.5 495.6 524.2 495.6 520.8 495.8 512.5 498.8 508.8 507.9 508.5 521.2 508.1 534.5 505.8 547.8 504.3 533.8 501.2 519.8 499.5 505.8 498.4 499.5 497.9 496.8 495.2 496.1 489 495 478.6 493.1 468.3 491.6 457.9 488.5 468.6 487.1 479.1 485.2 489.6 484.8 492.1 482.6 496.4 481 496.4 467 497 453.1 496.8 439.1 496.8 438.9 477.8 438.9 477.8 456.9 473.1 461.8 471.7 466.7 470.3 471.6 468.9 453.2 462.8 431.3 461.6 438.9 433.3 465.5 431.9 492.4 430.6 519.3 429.3 519.3 427.9 519.3 426.5 519.3 425.2 491.9 423.9 464.5 422.6 436 421.3 435.3 415.9 434.6 409.7 433.8 403.4 451.5 401.7 468 400.2 484.4 398.6 484.4 397.6 484.4 396.6 484.3 395.7 469.4 394.5 454.4 393.5 439.4 392 436.1 391.6 433 389.2 430.7 388.1 427.6 389.3 424.2 391.6 420.5 392 405.3 393.5 390.1 394.5 374.8 395.6 374.8 396.6 374.8 397.6 374.8 398.6 392.2 400.3 409.6 401.9 427.2 403.6 426.3 410.6 427.5 417.9 424.3 421.8 421.3 425.6 413.9 425.9 408.3 427.7 413.3 428.6 418.2 429.5 423.7 430.5 422.8 438.9 422.3 446.4 420.9 453.8 420.6 455.8 417.9 458.6 416 458.8 403 460 390 460.7 376.9 461.5 375.2 455.8 373.8 450.9 371.8 444.1 365.8 462.8 365.8 462.8 347.3 463.6 344.9 463.7 342.5 463.8 340.1 464 326.2 465 312.3 466.2 298.4 467.3 315.7 470.2 332.8 471.7 349.9 472.2 361.1 472.5 370.2 474.3 370.7 488.1 370.7 488.2 371.8 488.4 372.6 488.6 374 483.8 375.5 479 376.8 474.5 386.6 475.1 395.2 475.7 403.8 476.1 421.5 477 421.5 476.9 422 494.9 422 495.9 421.6 496.8 421.3 498.6 381.6 500.3 341.8 501.9 302.1 503.5 302.1 503.7 302.1 503.9 302.1 504 342.3 505.4 382.5 506.7 423.4 508.1 424.3 517.1 425.1 525.1 426 533.9 410.1 533.1 395.7 532.3 381.3 531.6 361.2 530.7 361.2 530.8 355.5 512.1 355.3 511.1 354.7 510.3 353.9 508.6 352.9 512.6 351.4 515.9 351.2 519.2 350.8 528.9 345.5 531.7 336.5 531.9 327 532.1 317.4 533.7 307.9 534.6 307.8 535.2 307.7 535.8 307.6 536.3 321.1 537.9 334.6 539.6 348.2 541.2 350.1 548.1 351.9 554.7 354.4 563.7 356.7 554.6 358.4 548 360.2 540.9 380.4 539.9 400.3 538.7 420.2 538.1 422.5 538.1 426.3 541.7 427 544.3 428.4 549.4 428.1 555 428.5 561.1 414.3 562 401.2 562.8 388 563.6 388.1 564.7 388.1 565.7 388.1 566.8 415.1 566.8 442.1 566.8 469 566.8 469.1 565.8 469.1 564.7 469.1 563.7 456.9 562.9 444.7 562 432.6 561.2 432.6 543.3 432.6 543.3 442.8 535.1 440.5 534.7 438.1 534.2 435 533.6ZM371.5 428.9C371.5 428 371.5 427 371.5 426 349.8 426 328.2 426 306.5 426 306.5 427 306.5 428 306.5 428.9 328.2 428.9 349.8 428.9 371.5 428.9ZM542.8 470C542.8 468.9 542.8 467.7 542.8 466.5 531.5 466.5 520.2 466.5 508.8 466.5 508.8 467.7 508.8 468.9 508.9 470 520.2 470 531.5 470 542.8 470ZM423.7 202.9C450.5 202.9 477.3 202.7 504.2 202.9 513.8 203 516.9 207.3 516.7 217.7 516.5 226.1 512 229.2 504.2 229 450.9 227.9 397.6 226.7 344.3 225.6 332.2 225.3 330.4 222.8 330.3 210.6 330.2 199.6 336.9 198.7 345.3 198.7 371.4 198.8 397.6 198.8 423.7 198.8 423.7 200.1 423.7 201.5 423.7 202.9ZM356.4 161C354.8 160.7 350.4 160.2 346.1 159 327.2 153.3 316 136.1 320 119 323.7 103 343 91.4 361.4 94.1 374.6 96 385.8 101.2 392.9 113.1 398.8 123.1 399.3 133.4 393.5 143.6 387.3 154.6 374.2 161.2 356.4 161ZM489.6 101.1C509.7 101 525.4 114.4 525.5 131.9 525.7 148.2 511.5 160.9 493 161 474.3 161.2 458.1 147 457.7 130.3 457.4 113.4 470.7 101.2 489.6 101.1ZM302.3 926.2C282 928.1 262.2 930.1 242.4 931.3 240 931.5 237.3 926.9 234.9 924.4 234.6 924 234.9 923.1 234.9 922.4 233.7 889.6 233.8 888.7 266.4 883.6 297.3 878.7 328.4 874.8 359.4 871 368.5 869.9 377.9 870.9 387.1 870.9 387.2 871.8 387.3 872.8 387.4 873.7 380.1 875 372.7 875.8 365.4 877.5 348.1 881.6 330.4 884.8 313.6 890.7 296.5 896.7 293 909.3 302.3 926.2ZM243.3 879.8C251.2 866.4 287.3 862 311.4 870.7 288.5 873.7 266.3 876.7 243.3 879.8ZM484.6 903C483.5 903.4 482.5 904.1 481.6 904.1 472.9 903.7 464.2 903.2 455.5 902.7 455.6 891.2 454.7 879.4 456.7 868.1 457.3 864.4 465.1 860 470.2 859.2 495 855.1 519.9 851.7 544.8 848.8 557.4 847.3 570.2 847.1 582.9 846.6 586.1 846.5 589.3 847.4 592.4 849.3 563.5 854.4 534.6 859.2 505.8 864.7 481.9 869.2 477.7 876.6 484.4 900 484.6 900.9 484.5 901.9 484.6 903ZM507 846C491.1 848.6 476.1 851.2 461.4 853.6 466.4 840.8 480.2 838.1 507 846ZM141.7 331.5C145.8 354.7 137.5 367.2 116 373.5 109.9 375.3 104.7 380.2 99.1 383.7 103.1 388.8 107 394 111.4 398.9 113.1 400.8 115.6 402 117.5 406 102 406 86.5 406.5 71 405.9 63 405.5 60.7 400.9 65.9 394 80.3 375.1 94.4 355.9 109.2 337.4 118.1 326.3 130.5 331 141.7 331.5ZM253.3 204.3C250 227.1 246.4 229.2 213.4 227.3 214.7 221.1 216.2 215 217.3 208.7 218.3 202.7 218.8 196.5 219.6 190.2 236.6 180.9 241.7 200.6 253.3 204.3Z",
        "width": 731
      },
      "search": [
        "ultimaker_logo"
      ]
    },
    {
      "uid": "2cfb3f2b46b34a1790aec0aa846297b6",
      "css": "menu",
      "code": 59394,
      "src": "entypo"
    },
    {
      "uid": "15ba51cbb4d05e6fb88f03a31a7c711c",
      "css": "info-circled-alt",
      "code": 59395,
      "src": "mfglabs"
    },
    {
      "uid": "5d595124cecf472869d1cdc020da0ccc",
      "css": "upload-cloud",
      "code": 59396,
      "src": "entypo"
    }
  ]
}